# 3ds Max Wavefront OBJ Exporter v0.97b - (c)2007 guruware
# File Created: 10.12.2018 11:44:25

newmtl wire_088177027
	Ns 32
	d 1
	Tr 0
	Tf 1 1 1
	illum 2
	Ka 0.3451 0.6941 0.1059
	Kd 0.3451 0.6941 0.1059
	Ks 0.3500 0.3500 0.3500

newmtl wire_177028149
	Ns 32
	d 1
	Tr 0
	Tf 1 1 1
	illum 2
	Ka 0.6941 0.1098 0.5843
	Kd 0.6941 0.1098 0.5843
	Ks 0.3500 0.3500 0.3500

newmtl wire_153228214
	Ns 32
	d 1
	Tr 0
	Tf 1 1 1
	illum 2
	Ka 0.6000 0.8941 0.8392
	Kd 0.6000 0.8941 0.8392
	Ks 0.3500 0.3500 0.3500

newmtl wire_225088199
	Ns 32
	d 1
	Tr 0
	Tf 1 1 1
	illum 2
	Ka 0.8824 0.3451 0.7804
	Kd 0.8824 0.3451 0.7804
	Ks 0.3500 0.3500 0.3500

newmtl wire_135006006
	Ns 32
	d 1
	Tr 0
	Tf 1 1 1
	illum 2
	Ka 0.5294 0.0235 0.0235
	Kd 0.5294 0.0235 0.0235
	Ks 0.3500 0.3500 0.3500

newmtl wire_006135058
	Ns 32
	d 1
	Tr 0
	Tf 1 1 1
	illum 2
	Ka 0.0235 0.5294 0.2275
	Kd 0.0235 0.5294 0.2275
	Ks 0.3500 0.3500 0.3500

newmtl wire_229166215
	Ns 32
	d 1
	Tr 0
	Tf 1 1 1
	illum 2
	Ka 0.8980 0.6510 0.8431
	Kd 0.8980 0.6510 0.8431
	Ks 0.3500 0.3500 0.3500

newmtl wire_085028177
	Ns 32
	d 1
	Tr 0
	Tf 1 1 1
	illum 2
	Ka 0.3333 0.1098 0.6941
	Kd 0.3333 0.1098 0.6941
	Ks 0.3500 0.3500 0.3500

newmtl wire_143225087
	Ns 32
	d 1
	Tr 0
	Tf 1 1 1
	illum 2
	Ka 0.5608 0.8824 0.3412
	Kd 0.5608 0.8824 0.3412
	Ks 0.3500 0.3500 0.3500

newmtl wire_108008136
	Ns 32
	d 1
	Tr 0
	Tf 1 1 1
	illum 2
	Ka 0.4235 0.0314 0.5333
	Kd 0.4235 0.0314 0.5333
	Ks 0.3500 0.3500 0.3500

newmtl wire_228184153
	Ns 32
	d 1
	Tr 0
	Tf 1 1 1
	illum 2
	Ka 0.8941 0.7216 0.6000
	Kd 0.8941 0.7216 0.6000
	Ks 0.3500 0.3500 0.3500

newmtl wire_196088225
	Ns 32
	d 1
	Tr 0
	Tf 1 1 1
	illum 2
	Ka 0.7686 0.3451 0.8824
	Kd 0.7686 0.3451 0.8824
	Ks 0.3500 0.3500 0.3500
